题目一通信zy2001杨子睿附件材料/viavado_prj/.Xil/Vivado-17908-LAPTOP-3N54D6K6/hw_ila_data_1/zip_work/waveform.vcd
$date
        2023-Feb-28 15:52:42
$end
$version
        Vivado v2022.2 (64-bit)
$end
$timescale
        1ps
$end
$scope module dut $end
$var reg 16 " EXP_IBUF [15:0] $end
$var reg 1 2 clk50M_IBUF $end
$var reg 32 3 HADDRI [31:0] $end
$var reg 32 S HRDATAI [31:0] $end
$var reg 1 s _TRIGGER $end
$var reg 1 t _WINDOW $end
$var reg 1 u _GAP $end
$upscope $end
$enddefinitions $end
#0
$dumpvars
b1111111101011110 "
02
b11111111111111111111111111100 3
b0 S
0s
1t
0u
$end
#2
b1110111100 3
#3
b1111000000 3
#4
b10110101001100001011110100000000 S
#5
b1111000100 3
b100101000000000100011000000100 S
#6
b1111001000 3
b11110100010011111110000000000101 S
#7
b0 S
#11
b1111100100 3
#12
b1111101000 3
b11100011000001111111111011100 S
#13
b1111101100 3
b1000010100111001011001010000100 S
#14
b1111110000 3
b10111101000100001101101111111000 S
#15
b1111110100 3
b1001000001001011011000010000110 S
#16
b1111100000 3
b11110100010011110110100000000000 S
#17
b1111100100 3
b11110111111111110010000000110010 S
#18
b1111101000 3
b11100011000001111111111011100 S
#19
b1110011100 3
b1000010100111001011001010000100 S
#20
b1110100000 3
b10110101000000000100011101110000 S
#21
b1110100100 3
b100000000000000100011000000010 S
#22
b1110101000 3
b11111111100010001111011111111111 S
#23
b1110101100 3
b11110111111111110100011000010000 S
#24
b0 S
#25
b1010111000 3
b100000000000001111111110001001 S
#26
b1010111100 3
b100001111000001111000001001111 S
#27
b1011000000 3
b1000111011100000110000100001000 S
#28
b1011000100 3
b100001111000001111000001001111 S
#29
b1011001000 3
b1000111011100000110000101001000 S
#30
b1110101000 3
b0 S
#31
b111100 3
#32
b1110101100 3
b1011101101 S
#33
b1011110000 3
b0 S
#35
b1011101100 3
#36
b1011110000 3
b1101000000000000100100000000010 S
#37
b1011110100 3
b1001001000000010001110001000000 S
#38
b1011111000 3
b1000111011100000110000000001000 S
#39
b0 S
#42
b100000000000000000000000000100 S
#43
b0 S
#44
b1011111100 3
#45
b100000000000000000000000000100 S
#46
b1100000000 3
b1001000000100011011010100011111 S
#47
b0 S
#48
b100000000000000000000000000100 S
#49
b11111111111111111111111111000 3
b0 S
#50
b11111111111111111111111111100 3
#53
b1010111100 3
#54
b1011000000 3
#55
b1000111011100000110000100001000 S
#56
b1011000100 3
b100001111000001111000001001111 S
#57
b1011001000 3
b1000111011100000110000101001000 S
#58
b0 S
#60
b1110101000 3
#61
b1110101100 3
b11110111111111110100011000010000 S
#62
b1110110000 3
b100000000000001111111110001001 S
#63
b0 S
#64
b1011000000 3
b11111111100010101111011111111111 S
#65
b1011000100 3
b100001111000001111000001001111 S
#66
b1011001000 3
b1000111011100000110000101001000 S
#67
b1011001100 3
b100001111000001111000001001111 S
#68
b1011010000 3
b1000111011100000110000110001000 S
#69
b1110101100 3
b0 S
#70
b1110110000 3
b100000000000001111111110001001 S
#71
b1110110100 3
b11111111100010101111011111111111 S
#72
b0 S
#73
b1011001000 3
b11110111111111110010000000000111 S
#74
b1011001100 3
b100001111000001111000001001111 S
#75
b1011010000 3
b1000111011100000110000110001000 S
#76
b1011010100 3
b100000000000001011010100010000 S
#77
b1011011000 3
b11111111111100001111011111111111 S
#78
b1110110100 3
b0 S
#79
b1110111000 3
b11110111111111110010000000000111 S
#80
b1110111100 3
b10111111001100001111111101111111 S
#81
b0 S
#82
b1010111000 3
b10110101001100001011110100000000 S
#83
b1010111100 3
b100001111000001111000001001111 S
#84
b1011000000 3
b1000111011100000110000100001000 S
#85
b1011000100 3
b100001111000001111000001001111 S
#86
b1011001000 3
b1000111011100000110000101001000 S
#87
b1110111000 3
b0 S
#88
b1110111100 3
b10111111001100001111111101111111 S
#89
b1111000000 3
b10110101001100001011110100000000 S
#90
b0 S
#91
b1111000100 3
b100101000000000100011000000100 S
#92
b1111001000 3
b11110100010011111110000000000101 S
#93
b0 S
#143
b111100 3
#144
b1111001000 3
b1011101101 S
#145
b1011110000 3
b0 S
#147
b1011101100 3
#148
b1011110000 3
b1101000000000000100100000000010 S
#149
b1011110100 3
b1001001000000010001110001000000 S
#150
b1011111000 3
b1000111011100000110000000001000 S
#151
b0 S
#154
b100000000000000000000000000100 S
#155
b0 S
#156
b1011111100 3
#157
b100000000000000000000000000100 S
#158
b1100000000 3
b1001000000100011011010100011111 S
#159
b0 S
#160
b100000000000000000000000000100 S
#161
b11111111111111111111111111000 3
b0 S
#162
b11111111111111111111111111100 3
#165
b1110111100 3
#166
b1111000000 3
#167
b10110101001100001011110100000000 S
#168
b1111000100 3
b100101000000000100011000000100 S
#169
b1111001000 3
b11110100010011111110000000000101 S
#170
b0 S
#174
b1111100100 3
#175
b1111101000 3
b11100011000001111111111011100 S
#176
b1111101100 3
b1000010100111001011001010000100 S
#177
b1111110000 3
b10111101000100001101101111111000 S
#178
b1111110100 3
b1001000001001011011000010000110 S
#179
b1111100000 3
b11110100010011110110100000000000 S
#180
b1111100100 3
b11110111111111110010000000110010 S
#181
b1111101000 3
b11100011000001111111111011100 S
#182
b1110011100 3
b1000010100111001011001010000100 S
#183
b1110100000 3
b10110101000000000100011101110000 S
#184
b1110100100 3
b100000000000000100011000000010 S
#185
b1110101000 3
b11111111100010001111011111111111 S
#186
b1110101100 3
b11110111111111110100011000010000 S
#187
b0 S
#188
b1010111000 3
b100000000000001111111110001001 S
#189
b1010111100 3
b100001111000001111000001001111 S
#190
b1011000000 3
b1000111011100000110000100001000 S
#191
b1011000100 3
b100001111000001111000001001111 S
#192
b1011001000 3
b1000111011100000110000101001000 S
#193
b1110101000 3
b0 S
#194
b111100 3
#195
b1110101100 3
b1011101101 S
#196
b1011110000 3
b0 S
#198
b1011101100 3
#199
b1011110000 3
b1101000000000000100100000000010 S
#200
b1011110100 3
b1001001000000010001110001000000 S
#201
b1011111000 3
b1000111011100000110000000001000 S
#202
b0 S
#205
b100000000000000000000000000100 S
#206
b0 S
#207
b1011111100 3
#208
b100000000000000000000000000100 S
#209
b1100000000 3
b1001000000100011011010100011111 S
#210
b0 S
#211
b100000000000000000000000000100 S
#212
b11111111111111111111111111000 3
b0 S
#213
b11111111111111111111111111100 3
#216
b1010111100 3
#217
b1011000000 3
#218
b1000111011100000110000100001000 S
#219
b1011000100 3
b100001111000001111000001001111 S
#220
b1011001000 3
b1000111011100000110000101001000 S
#221
b0 S
#223
b1110101000 3
#224
b1110101100 3
b11110111111111110100011000010000 S
#225
b1110110000 3
b100000000000001111111110001001 S
#226
b0 S
#227
b1011000000 3
b11111111100010101111011111111111 S
#228
b1011000100 3
b100001111000001111000001001111 S
#229
b1011001000 3
b1000111011100000110000101001000 S
#230
b1011001100 3
b100001111000001111000001001111 S
#231
b1011010000 3
b1000111011100000110000110001000 S
#232
b1110101100 3
b0 S
#233
b1110110000 3
b100000000000001111111110001001 S
#234
b1110110100 3
b11111111100010101111011111111111 S
#235
b0 S
#236
b1011001000 3
b11110111111111110010000000000111 S
#237
b1011001100 3
b100001111000001111000001001111 S
#238
b1011010000 3
b1000111011100000110000110001000 S
#239
b1011010100 3
b100000000000001011010100010000 S
#240
b1011011000 3
b11111111111100001111011111111111 S
#241
b1110110100 3
b0 S
#242
b1110111000 3
b11110111111111110010000000000111 S
#243
b1110111100 3
b10111111001100001111111101111111 S
#244
b0 S
#245
b1010111000 3
b10110101001100001011110100000000 S
#246
b1010111100 3
b100001111000001111000001001111 S
#247
b1011000000 3
b1000111011100000110000100001000 S
#248
b1011000100 3
b100001111000001111000001001111 S
#249
b1011001000 3
b1000111011100000110000101001000 S
#250
b1110111000 3
b0 S
#251
b1110111100 3
b10111111001100001111111101111111 S
#252
b1111000000 3
b10110101001100001011110100000000 S
#253
b0 S
#254
b1111000100 3
b100101000000000100011000000100 S
#255
b1111001000 3
b11110100010011111110000000000101 S
#256
b0 S
#306
b111100 3
#307
b1111001000 3
b1011101101 S
#308
b1011110000 3
b0 S
#310
b1011101100 3
#311
b1011110000 3
b1101000000000000100100000000010 S
#312
b1011110100 3
b1001001000000010001110001000000 S
#313
b1011111000 3
b1000111011100000110000000001000 S
#314
b0 S
#317
b100000000000000000000000000100 S
#318
b0 S
#319
b1011111100 3
#320
b100000000000000000000000000100 S
#321
b1100000000 3
b1001000000100011011010100011111 S
#322
b0 S
#323
b100000000000000000000000000100 S
#324
b11111111111111111111111111000 3
b0 S
#325
b11111111111111111111111111100 3
#328
b1110111100 3
#329
b1111000000 3
#330
b10110101001100001011110100000000 S
#331
b1111000100 3
b100101000000000100011000000100 S
#332
b1111001000 3
b11110100010011111110000000000101 S
#333
b0 S
#337
b1111100100 3
#338
b1111101000 3
b11100011000001111111111011100 S
#339
b1111101100 3
b1000010100111001011001010000100 S
#340
b1111110000 3
b10111101000100001101101111111000 S
#341
b1111110100 3
b1001000001001011011000010000110 S
#342
b1111100000 3
b11110100010011110110100000000000 S
#343
b1111100100 3
b11110111111111110010000000110010 S
#344
b1111101000 3
b11100011000001111111111011100 S
#345
b1110011100 3
b1000010100111001011001010000100 S
#346
b1110100000 3
b10110101000000000100011101110000 S
#347
b1110100100 3
b100000000000000100011000000010 S
#348
b1110101000 3
b11111111100010001111011111111111 S
#349
b1110101100 3
b11110111111111110100011000010000 S
#350
b0 S
#351
b1010111000 3
b100000000000001111111110001001 S
#352
b1010111100 3
b100001111000001111000001001111 S
#353
b1011000000 3
b1000111011100000110000100001000 S
#354
b1011000100 3
b100001111000001111000001001111 S
#355
b1011001000 3
b1000111011100000110000101001000 S
#356
b1110101000 3
b0 S
#357
b111100 3
#358
b1110101100 3
b1011101101 S
#359
b1011110000 3
b0 S
#361
b1011101100 3
#362
b1011110000 3
b1101000000000000100100000000010 S
#363
b1011110100 3
b1001001000000010001110001000000 S
#364
b1011111000 3
b1000111011100000110000000001000 S
#365
b0 S
#368
b100000000000000000000000000100 S
#369
b0 S
#370
b1011111100 3
#371
b100000000000000000000000000100 S
#372
b1100000000 3
b1001000000100011011010100011111 S
#373
b0 S
#374
b100000000000000000000000000100 S
#375
b11111111111111111111111111000 3
b0 S
#376
b11111111111111111111111111100 3
#379
b1010111100 3
#380
b1011000000 3
#381
b1000111011100000110000100001000 S
#382
b1011000100 3
b100001111000001111000001001111 S
#383
b1011001000 3
b1000111011100000110000101001000 S
#384
b0 S
#386
b1110101000 3
#387
b1110101100 3
b11110111111111110100011000010000 S
#388
b1110110000 3
b100000000000001111111110001001 S
#389
b0 S
#390
b1011000000 3
b11111111100010101111011111111111 S
#391
b1011000100 3
b100001111000001111000001001111 S
#392
b1011001000 3
b1000111011100000110000101001000 S
#393
b1011001100 3
b100001111000001111000001001111 S
#394
b1011010000 3
b1000111011100000110000110001000 S
#395
b1110101100 3
b0 S
#396
b1110110000 3
b100000000000001111111110001001 S
#397
b1110110100 3
b11111111100010101111011111111111 S
#398
b0 S
#399
b1011001000 3
b11110111111111110010000000000111 S
#400
b1011001100 3
b100001111000001111000001001111 S
#401
b1011010000 3
b1000111011100000110000110001000 S
#402
b1011010100 3
b100000000000001011010100010000 S
#403
b1011011000 3
b11111111111100001111011111111111 S
#404
b1110110100 3
b0 S
#405
b1110111000 3
b11110111111111110010000000000111 S
#406
b1110111100 3
b10111111001100001111111101111111 S
#407
b0 S
#408
b1010111000 3
b10110101001100001011110100000000 S
#409
b1010111100 3
b100001111000001111000001001111 S
#410
b1011000000 3
b1000111011100000110000100001000 S
#411
b1011000100 3
b100001111000001111000001001111 S
#412
b1011001000 3
b1000111011100000110000101001000 S
#413
b1110111000 3
b0 S
#414
b1110111100 3
b10111111001100001111111101111111 S
#415
b1111000000 3
b10110101001100001011110100000000 S
#416
b0 S
#417
b1111000100 3
b100101000000000100011000000100 S
#418
b1111001000 3
b11110100010011111110000000000101 S
#419
b0 S
#469
b111100 3
#470
b1111001000 3
b1011101101 S
#471
b1011110000 3
b0 S
#473
b1011101100 3
#474
b1011110000 3
b1101000000000000100100000000010 S
#475
b1011110100 3
b1001001000000010001110001000000 S
#476
b1011111000 3
b1000111011100000110000000001000 S
#477
b0 S
#480
b100000000000000000000000000100 S
#481
b0 S
#482
b1011111100 3
#483
b100000000000000000000000000100 S
#484
b1100000000 3
b1001000000100011011010100011111 S
#485
b0 S
#486
b100000000000000000000000000100 S
#487
b11111111111111111111111111000 3
b0 S
#488
b11111111111111111111111111100 3
#491
b1110111100 3
#492
b1111000000 3
#493
b10110101001100001011110100000000 S
#494
b1111000100 3
b100101000000000100011000000100 S
#495
b1111001000 3
b11110100010011111110000000000101 S
#496
b0 S
#500
b1111100100 3
#501
b1111101000 3
b11100011000001111111111011100 S
#502
b1111101100 3
b1000010100111001011001010000100 S
#503
b1111110000 3
b10111101000100001101101111111000 S
#504
b1111110100 3
b1001000001001011011000010000110 S
#505
b1111100000 3
b11110100010011110110100000000000 S
#506
b1111100100 3
b11110111111111110010000000110010 S
#507
b1111101000 3
b11100011000001111111111011100 S
#508
b1110011100 3
b1000010100111001011001010000100 S
#509
b1110100000 3
b10110101000000000100011101110000 S
#510
b1110100100 3
b100000000000000100011000000010 S
#511
b1110101000 3
b11111111100010001111011111111111 S
#512
b1110101100 3
b11110111111111110100011000010000 S
1s
#513
b0 S
#514
b1010111000 3
b100000000000001111111110001001 S
#515
b1010111100 3
b100001111000001111000001001111 S
#516
b1011000000 3
b1000111011100000110000100001000 S
#517
b1011000100 3
b100001111000001111000001001111 S
#518
b1011001000 3
b1000111011100000110000101001000 S
#519
b1110101000 3
b0 S
#520
b111100 3
#521
b1110101100 3
b1011101101 S
#522
b1011110000 3
b0 S
#524
b1011101100 3
#525
b1011110000 3
b1101000000000000100100000000010 S
#526
b1011110100 3
b1001001000000010001110001000000 S
#527
b1011111000 3
b1000111011100000110000000001000 S
#528
b0 S
#531
b100000000000000000000000000100 S
#532
b0 S
#533
b1011111100 3
#534
b100000000000000000000000000100 S
#535
b1100000000 3
b1001000000100011011010100011111 S
#536
b0 S
#537
b100000000000000000000000000100 S
#538
b11111111111111111111111111000 3
b0 S
#539
b11111111111111111111111111100 3
#542
b1010111100 3
#543
b1011000000 3
#544
b1000111011100000110000100001000 S
#545
b1011000100 3
b100001111000001111000001001111 S
#546
b1011001000 3
b1000111011100000110000101001000 S
#547
b0 S
#549
b1110101000 3
#550
b1110101100 3
b11110111111111110100011000010000 S
#551
b1110110000 3
b100000000000001111111110001001 S
#552
b0 S
#553
b1011000000 3
b11111111100010101111011111111111 S
#554
b1011000100 3
b100001111000001111000001001111 S
#555
b1011001000 3
b1000111011100000110000101001000 S
#556
b1011001100 3
b100001111000001111000001001111 S
#557
b1011010000 3
b1000111011100000110000110001000 S
#558
b1110101100 3
b0 S
#559
b1110110000 3
b100000000000001111111110001001 S
#560
b1110110100 3
b11111111100010101111011111111111 S
#561
b0 S
#562
b1011001000 3
b11110111111111110010000000000111 S
#563
b1011001100 3
b100001111000001111000001001111 S
#564
b1011010000 3
b1000111011100000110000110001000 S
#565
b1011010100 3
b100000000000001011010100010000 S
#566
b1011011000 3
b11111111111100001111011111111111 S
#567
b1110110100 3
b0 S
#568
b1110111000 3
b11110111111111110010000000000111 S
#569
b1110111100 3
b10111111001100001111111101111111 S
#570
b0 S
#571
b1010111000 3
b10110101001100001011110100000000 S
#572
b1010111100 3
b100001111000001111000001001111 S
#573
b1011000000 3
b1000111011100000110000100001000 S
#574
b1011000100 3
b100001111000001111000001001111 S
#575
b1011001000 3
b1000111011100000110000101001000 S
#576
b1110111000 3
b0 S
#577
b1110111100 3
b10111111001100001111111101111111 S
#578
b1111000000 3
b10110101001100001011110100000000 S
#579
b0 S
#580
b1111000100 3
b100101000000000100011000000100 S
#581
b1111001000 3
b11110100010011111110000000000101 S
#582
b0 S
#632
b111100 3
#633
b1111001000 3
b1011101101 S
#634
b1011110000 3
b0 S
#636
b1011101100 3
#637
b1011110000 3
b1101000000000000100100000000010 S
#638
b1011110100 3
b1001001000000010001110001000000 S
#639
b1011111000 3
b1000111011100000110000000001000 S
#640
b0 S
#643
b100000000000000000000000000100 S
#644
b0 S
#645
b1011111100 3
#646
b100000000000000000000000000100 S
#647
b1100000000 3
b1001000000100011011010100011111 S
#648
b0 S
#649
b100000000000000000000000000100 S
#650
b11111111111111111111111111000 3
b0 S
#651
b11111111111111111111111111100 3
#654
b1110111100 3
#655
b1111000000 3
#656
b10110101001100001011110100000000 S
#657
b1111000100 3
b100101000000000100011000000100 S
#658
b1111001000 3
b11110100010011111110000000000101 S
#659
b0 S
#663
b1111100100 3
#664
b1111101000 3
b11100011000001111111111011100 S
#665
b1111101100 3
b1000010100111001011001010000100 S
#666
b1111110000 3
b10111101000100001101101111111000 S
#667
b1111110100 3
b1001000001001011011000010000110 S
#668
b1111100000 3
b11110100010011110110100000000000 S
#669
b1111100100 3
b11110111111111110010000000110010 S
#670
b1111101000 3
b11100011000001111111111011100 S
#671
b1110011100 3
b1000010100111001011001010000100 S
#672
b1110100000 3
b10110101000000000100011101110000 S
#673
b1110100100 3
b100000000000000100011000000010 S
#674
b1110101000 3
b11111111100010001111011111111111 S
#675
b1110101100 3
b11110111111111110100011000010000 S
#676
b0 S
#677
b1010111000 3
b100000000000001111111110001001 S
#678
b1010111100 3
b100001111000001111000001001111 S
#679
b1011000000 3
b1000111011100000110000100001000 S
#680
b1011000100 3
b100001111000001111000001001111 S
#681
b1011001000 3
b1000111011100000110000101001000 S
#682
b1110101000 3
b0 S
#683
b111100 3
#684
b1110101100 3
b1011101101 S
#685
b1011110000 3
b0 S
#687
b1011101100 3
#688
b1011110000 3
b1101000000000000100100000000010 S
#689
b1011110100 3
b1001001000000010001110001000000 S
#690
b1011111000 3
b1000111011100000110000000001000 S
#691
b0 S
#694
b100000000000000000000000000100 S
#695
b0 S
#696
b1011111100 3
#697
b100000000000000000000000000100 S
#698
b1100000000 3
b1001000000100011011010100011111 S
#699
b0 S
#700
b100000000000000000000000000100 S
#701
b11111111111111111111111111000 3
b0 S
#702
b11111111111111111111111111100 3
#705
b1010111100 3
#706
b1011000000 3
#707
b1000111011100000110000100001000 S
#708
b1011000100 3
b100001111000001111000001001111 S
#709
b1011001000 3
b1000111011100000110000101001000 S
#710
b0 S
#712
b1110101000 3
#713
b1110101100 3
b11110111111111110100011000010000 S
#714
b1110110000 3
b100000000000001111111110001001 S
#715
b0 S
#716
b1011000000 3
b11111111100010101111011111111111 S
#717
b1011000100 3
b100001111000001111000001001111 S
#718
b1011001000 3
b1000111011100000110000101001000 S
#719
b1011001100 3
b100001111000001111000001001111 S
#720
b1011010000 3
b1000111011100000110000110001000 S
#721
b1110101100 3
b0 S
#722
b1110110000 3
b100000000000001111111110001001 S
#723
b1110110100 3
b11111111100010101111011111111111 S
#724
b0 S
#725
b1011001000 3
b11110111111111110010000000000111 S
#726
b1011001100 3
b100001111000001111000001001111 S
#727
b1011010000 3
b1000111011100000110000110001000 S
#728
b1011010100 3
b100000000000001011010100010000 S
#729
b1011011000 3
b11111111111100001111011111111111 S
#730
b1110110100 3
b0 S
#731
b1110111000 3
b11110111111111110010000000000111 S
#732
b1110111100 3
b10111111001100001111111101111111 S
#733
b0 S
#734
b1010111000 3
b10110101001100001011110100000000 S
#735
b1010111100 3
b100001111000001111000001001111 S
#736
b1011000000 3
b1000111011100000110000100001000 S
#737
b1011000100 3
b100001111000001111000001001111 S
#738
b1011001000 3
b1000111011100000110000101001000 S
#739
b1110111000 3
b0 S
#740
b1110111100 3
b10111111001100001111111101111111 S
#741
b1111000000 3
b10110101001100001011110100000000 S
#742
b0 S
#743
b1111000100 3
b100101000000000100011000000100 S
#744
b1111001000 3
b11110100010011111110000000000101 S
#745
b0 S
#795
b111100 3
#796
b1111001000 3
b1011101101 S
#797
b1011110000 3
b0 S
#799
b1011101100 3
#800
b1011110000 3
b1101000000000000100100000000010 S
#801
b1011110100 3
b1001001000000010001110001000000 S
#802
b1011111000 3
b1000111011100000110000000001000 S
#803
b0 S
#806
b100000000000000000000000000100 S
#807
b0 S
#808
b1011111100 3
#809
b100000000000000000000000000100 S
#810
b1100000000 3
b1001000000100011011010100011111 S
#811
b0 S
#812
b100000000000000000000000000100 S
#813
b11111111111111111111111111000 3
b0 S
#814
b11111111111111111111111111100 3
#817
b1110111100 3
#818
b1111000000 3
#819
b10110101001100001011110100000000 S
#820
b1111000100 3
b100101000000000100011000000100 S
#821
b1111001000 3
b11110100010011111110000000000101 S
#822
b0 S
#826
b1111100100 3
#827
b1111101000 3
b11100011000001111111111011100 S
#828
b1111101100 3
b1000010100111001011001010000100 S
#829
b1111110000 3
b10111101000100001101101111111000 S
#830
b1111110100 3
b1001000001001011011000010000110 S
#831
b1111100000 3
b11110100010011110110100000000000 S
#832
b1111100100 3
b11110111111111110010000000110010 S
#833
b1111101000 3
b11100011000001111111111011100 S
#834
b1110011100 3
b1000010100111001011001010000100 S
#835
b1110100000 3
b10110101000000000100011101110000 S
#836
b1110100100 3
b100000000000000100011000000010 S
#837
b1110101000 3
b11111111100010001111011111111111 S
#838
b1110101100 3
b11110111111111110100011000010000 S
#839
b0 S
#840
b1010111000 3
b100000000000001111111110001001 S
#841
b1010111100 3
b100001111000001111000001001111 S
#842
b1011000000 3
b1000111011100000110000100001000 S
#843
b1011000100 3
b100001111000001111000001001111 S
#844
b1011001000 3
b1000111011100000110000101001000 S
#845
b1110101000 3
b0 S
#846
b111100 3
#847
b1110101100 3
b1011101101 S
#848
b1011110000 3
b0 S
#850
b1011101100 3
#851
b1011110000 3
b1101000000000000100100000000010 S
#852
b1011110100 3
b1001001000000010001110001000000 S
#853
b1011111000 3
b1000111011100000110000000001000 S
#854
b0 S
#857
b100000000000000000000000000100 S
#858
b0 S
#859
b1011111100 3
#860
b100000000000000000000000000100 S
#861
b1100000000 3
b1001000000100011011010100011111 S
#862
b0 S
#863
b100000000000000000000000000100 S
#864
b11111111111111111111111111000 3
b0 S
#865
b11111111111111111111111111100 3
#868
b1010111100 3
#869
b1011000000 3
#870
b1000111011100000110000100001000 S
#871
b1011000100 3
b100001111000001111000001001111 S
#872
b1011001000 3
b1000111011100000110000101001000 S
#873
b0 S
#875
b1110101000 3
#876
b1110101100 3
b11110111111111110100011000010000 S
#877
b1110110000 3
b100000000000001111111110001001 S
#878
b0 S
#879
b1011000000 3
b11111111100010101111011111111111 S
#880
b1011000100 3
b100001111000001111000001001111 S
#881
b1011001000 3
b1000111011100000110000101001000 S
#882
b1011001100 3
b100001111000001111000001001111 S
#883
b1011010000 3
b1000111011100000110000110001000 S
#884
b1110101100 3
b0 S
#885
b1110110000 3
b100000000000001111111110001001 S
#886
b1110110100 3
b11111111100010101111011111111111 S
#887
b0 S
#888
b1011001000 3
b11110111111111110010000000000111 S
#889
b1011001100 3
b100001111000001111000001001111 S
#890
b1011010000 3
b1000111011100000110000110001000 S
#891
b1011010100 3
b100000000000001011010100010000 S
#892
b1011011000 3
b11111111111100001111011111111111 S
#893
b1110110100 3
b0 S
#894
b1110111000 3
b11110111111111110010000000000111 S
#895
b1110111100 3
b10111111001100001111111101111111 S
#896
b0 S
#897
b1010111000 3
b10110101001100001011110100000000 S
#898
b1010111100 3
b100001111000001111000001001111 S
#899
b1011000000 3
b1000111011100000110000100001000 S
#900
b1011000100 3
b100001111000001111000001001111 S
#901
b1011001000 3
b1000111011100000110000101001000 S
#902
b1110111000 3
b0 S
#903
b1110111100 3
b10111111001100001111111101111111 S
#904
b1111000000 3
b10110101001100001011110100000000 S
#905
b0 S
#906
b1111000100 3
b100101000000000100011000000100 S
#907
b1111001000 3
b11110100010011111110000000000101 S
#908
b0 S
#958
b111100 3
#959
b1111001000 3
b1011101101 S
#960
b1011110000 3
b0 S
#962
b1011101100 3
#963
b1011110000 3
b1101000000000000100100000000010 S
#964
b1011110100 3
b1001001000000010001110001000000 S
#965
b1011111000 3
b1000111011100000110000000001000 S
#966
b0 S
#969
b100000000000000000000000000100 S
#970
b0 S
#971
b1011111100 3
#972
b100000000000000000000000000100 S
#973
b1100000000 3
b1001000000100011011010100011111 S
#974
b0 S
#975
b100000000000000000000000000100 S
#976
b11111111111111111111111111000 3
b0 S
#977
b11111111111111111111111111100 3
#980
b1110111100 3
#981
b1111000000 3
#982
b10110101001100001011110100000000 S
#983
b1111000100 3
b100101000000000100011000000100 S
#984
b1111001000 3
b11110100010011111110000000000101 S
#985
b0 S
#989
b1111100100 3
#990
b1111101000 3
b11100011000001111111111011100 S
#991
b1111101100 3
b1000010100111001011001010000100 S
#992
b1111110000 3
b10111101000100001101101111111000 S
#993
b1111110100 3
b1001000001001011011000010000110 S
#994
b1111100000 3
b11110100010011110110100000000000 S
#995
b1111100100 3
b11110111111111110010000000110010 S
#996
b1111101000 3
b11100011000001111111111011100 S
#997
b1110011100 3
b1000010100111001011001010000100 S
#998
b1110100000 3
b10110101000000000100011101110000 S
#999
b1110100100 3
b100000000000000100011000000010 S
#1000
b1110101000 3
b11111111100010001111011111111111 S
#1001
b1110101100 3
b11110111111111110100011000010000 S
#1002
b0 S
#1003
b1010111000 3
b100000000000001111111110001001 S
#1004
b1010111100 3
b100001111000001111000001001111 S
#1005
b1011000000 3
b1000111011100000110000100001000 S
#1006
b1011000100 3
b100001111000001111000001001111 S
#1007
b1011001000 3
b1000111011100000110000101001000 S
#1008
b1110101000 3
b0 S
#1009
b111100 3
#1010
b1110101100 3
b1011101101 S
#1011
b1011110000 3
b0 S
#1013
b1011101100 3
#1014
b1011110000 3
b1101000000000000100100000000010 S
#1015
b1011110100 3
b1001001000000010001110001000000 S
#1016
b1011111000 3
b1000111011100000110000000001000 S
#1017
b0 S
#1020
b100000000000000000000000000100 S
#1021
b0 S
#1022
b1011111100 3
#1023
b100000000000000000000000000100 S
