题目一通信zy2001杨子睿附件材料/viavado_prj/.Xil/Vivado-16472-LAPTOP-3N54D6K6/hw_ila_data_1/zip_work/waveform.vcd
$date
        2023-Feb-27 12:49:17
$end
$version
        Vivado v2022.2 (64-bit)
$end
$timescale
        1ps
$end
$scope module dut $end
$var reg 16 " EXP_IBUF [15:0] $end
$var reg 1 2 clk50M_IBUF $end
$var reg 32 3 HADDRI [31:0] $end
$var reg 32 S HRDATAI [31:0] $end
$var reg 1 s _TRIGGER $end
$var reg 1 t _WINDOW $end
$var reg 1 u _GAP $end
$upscope $end
$enddefinitions $end
#0
$dumpvars
b1111111101011110 "
02
b1010011100 3
b0 S
0s
1t
0u
$end
#2
b1101111100 3
#3
b1110000000 3
b11110111111111110100011000010000 S
#4
b1110000100 3
b100000000000001111111110001001 S
#5
b0 S
#6
b1010010100 3
b11111111100010101111011111111111 S
#7
b1010011000 3
b100001111000001111000001001111 S
#8
b1010011100 3
b1000111011100000110000101001000 S
#9
b1010100000 3
b100001111000001111000001001111 S
#10
b1010100100 3
b1000111011100000110000110001000 S
#11
b1110000000 3
b0 S
#12
b1110000100 3
b100000000000001111111110001001 S
#13
b1110001000 3
b11111111100010101111011111111111 S
#14
b0 S
#15
b1010011100 3
b11110111111111110010000000000111 S
#16
b1010100000 3
b100001111000001111000001001111 S
#17
b1010100100 3
b1000111011100000110000110001000 S
#18
b1010101000 3
b100000000000001011010100010000 S
#19
b1010101100 3
b11111111111100001111011111111111 S
#20
b1110001000 3
b0 S
#21
b1110001100 3
b11110111111111110010000000000111 S
#22
b1110010000 3
b10111111001100001111111101111111 S
#23
b0 S
#24
b1010001100 3
b10110101001100001011110100000000 S
#25
b1010010000 3
b100001111000001111000001001111 S
#26
b1010010100 3
b1000111011100000110000100001000 S
#27
b1010011000 3
b100001111000001111000001001111 S
#28
b1010011100 3
b1000111011100000110000101001000 S
#29
b1110001100 3
b0 S
#30
b1110010000 3
b10111111001100001111111101111111 S
#31
b1110010100 3
b10110101001100001011110100000000 S
#32
b0 S
#33
b1110011000 3
b100101000000000100011000000100 S
#34
b1110011100 3
b11110100010011111110000000000101 S
#35
b0 S
#85
b111100 3
#86
b1110011100 3
b1011000001 S
#87
b1011000100 3
b0 S
#89
b1011000000 3
#90
b1011000100 3
b1101000000000000100100000000010 S
#91
b1011001000 3
b1001001000000010001110001000000 S
#92
b1011001100 3
b1000111011100000110000000001000 S
#93
b0 S
#96
b100000000000000000000000000100 S
#97
b0 S
#98
b1011010000 3
#99
b100000000000000000000000000100 S
#100
b1011010100 3
b1001000000100011011010100011111 S
#101
b0 S
#102
b100000000000000000000000000100 S
#103
b11111111111111111111111111000 3
b0 S
#104
b11111111111111111111111111100 3
#107
b1110010000 3
#108
b1110010100 3
#109
b10110101001100001011110100000000 S
#110
b1110011000 3
b100101000000000100011000000100 S
#111
b1110011100 3
b11110100010011111110000000000101 S
#112
b0 S
#116
b1110111000 3
#117
b1110111100 3
b11100011000001111111111011100 S
#118
b1111000000 3
b1000010100111001011001010000100 S
#119
b1111000100 3
b10111101000100001101101111111000 S
#120
b1111001000 3
b1001000001000011011000010000110 S
#121
b1110110100 3
b11110100010011110110100000000000 S
#122
b1110111000 3
b11110111111111110010000000110010 S
#123
b1110111100 3
b11100011000001111111111011100 S
#124
b1101110000 3
b1000010100111001011001010000100 S
#125
b1101110100 3
b10110101000000000100011101110000 S
#126
b1101111000 3
b100000000000000100011000000010 S
#127
b1101111100 3
b11111111100010001111011111111111 S
#128
b1110000000 3
b11110111111111110100011000010000 S
#129
b0 S
#130
b1010001100 3
b100000000000001111111110001001 S
#131
b1010010000 3
b100001111000001111000001001111 S
#132
b1010010100 3
b1000111011100000110000100001000 S
#133
b1010011000 3
b100001111000001111000001001111 S
#134
b1010011100 3
b1000111011100000110000101001000 S
#135
b1101111100 3
b0 S
#136
b111100 3
#137
b1110000000 3
b1011000001 S
#138
b1011000100 3
b0 S
#140
b1011000000 3
#141
b1011000100 3
b1101000000000000100100000000010 S
#142
b1011001000 3
b1001001000000010001110001000000 S
#143
b1011001100 3
b1000111011100000110000000001000 S
#144
b0 S
#147
b100000000000000000000000000100 S
#148
b0 S
#149
b1011010000 3
#150
b100000000000000000000000000100 S
#151
b1011010100 3
b1001000000100011011010100011111 S
#152
b0 S
#153
b100000000000000000000000000100 S
#154
b11111111111111111111111111000 3
b0 S
#155
b11111111111111111111111111100 3
#158
b1010010000 3
#159
b1010010100 3
#160
b1000111011100000110000100001000 S
#161
b1010011000 3
b100001111000001111000001001111 S
#162
b1010011100 3
b1000111011100000110000101001000 S
#163
b0 S
#165
b1101111100 3
#166
b1110000000 3
b11110111111111110100011000010000 S
#167
b1110000100 3
b100000000000001111111110001001 S
#168
b0 S
#169
b1010010100 3
b11111111100010101111011111111111 S
#170
b1010011000 3
b100001111000001111000001001111 S
#171
b1010011100 3
b1000111011100000110000101001000 S
#172
b1010100000 3
b100001111000001111000001001111 S
#173
b1010100100 3
b1000111011100000110000110001000 S
#174
b1110000000 3
b0 S
#175
b1110000100 3
b100000000000001111111110001001 S
#176
b1110001000 3
b11111111100010101111011111111111 S
#177
b0 S
#178
b1010011100 3
b11110111111111110010000000000111 S
#179
b1010100000 3
b100001111000001111000001001111 S
#180
b1010100100 3
b1000111011100000110000110001000 S
#181
b1010101000 3
b100000000000001011010100010000 S
#182
b1010101100 3
b11111111111100001111011111111111 S
#183
b1110001000 3
b0 S
#184
b1110001100 3
b11110111111111110010000000000111 S
#185
b1110010000 3
b10111111001100001111111101111111 S
#186
b0 S
#187
b1010001100 3
b10110101001100001011110100000000 S
#188
b1010010000 3
b100001111000001111000001001111 S
#189
b1010010100 3
b1000111011100000110000100001000 S
#190
b1010011000 3
b100001111000001111000001001111 S
#191
b1010011100 3
b1000111011100000110000101001000 S
#192
b1110001100 3
b0 S
#193
b1110010000 3
b10111111001100001111111101111111 S
#194
b1110010100 3
b10110101001100001011110100000000 S
#195
b0 S
#196
b1110011000 3
b100101000000000100011000000100 S
#197
b1110011100 3
b11110100010011111110000000000101 S
#198
b0 S
#248
b111100 3
#249
b1110011100 3
b1011000001 S
#250
b1011000100 3
b0 S
#252
b1011000000 3
#253
b1011000100 3
b1101000000000000100100000000010 S
#254
b1011001000 3
b1001001000000010001110001000000 S
#255
b1011001100 3
b1000111011100000110000000001000 S
#256
b0 S
#259
b100000000000000000000000000100 S
#260
b0 S
#261
b1011010000 3
#262
b100000000000000000000000000100 S
#263
b1011010100 3
b1001000000100011011010100011111 S
#264
b0 S
#265
b100000000000000000000000000100 S
#266
b11111111111111111111111111000 3
b0 S
#267
b11111111111111111111111111100 3
#270
b1110010000 3
#271
b1110010100 3
#272
b10110101001100001011110100000000 S
#273
b1110011000 3
b100101000000000100011000000100 S
#274
b1110011100 3
b11110100010011111110000000000101 S
#275
b0 S
#279
b1110111000 3
#280
b1110111100 3
b11100011000001111111111011100 S
#281
b1111000000 3
b1000010100111001011001010000100 S
#282
b1111000100 3
b10111101000100001101101111111000 S
#283
b1111001000 3
b1001000001000011011000010000110 S
#284
b1110110100 3
b11110100010011110110100000000000 S
#285
b1110111000 3
b11110111111111110010000000110010 S
#286
b1110111100 3
b11100011000001111111111011100 S
#287
b1101110000 3
b1000010100111001011001010000100 S
#288
b1101110100 3
b10110101000000000100011101110000 S
#289
b1101111000 3
b100000000000000100011000000010 S
#290
b1101111100 3
b11111111100010001111011111111111 S
#291
b1110000000 3
b11110111111111110100011000010000 S
#292
b0 S
#293
b1010001100 3
b100000000000001111111110001001 S
#294
b1010010000 3
b100001111000001111000001001111 S
#295
b1010010100 3
b1000111011100000110000100001000 S
#296
b1010011000 3
b100001111000001111000001001111 S
#297
b1010011100 3
b1000111011100000110000101001000 S
#298
b1101111100 3
b0 S
#299
b111100 3
#300
b1110000000 3
b1011000001 S
#301
b1011000100 3
b0 S
#303
b1011000000 3
#304
b1011000100 3
b1101000000000000100100000000010 S
#305
b1011001000 3
b1001001000000010001110001000000 S
#306
b1011001100 3
b1000111011100000110000000001000 S
#307
b0 S
#310
b100000000000000000000000000100 S
#311
b0 S
#312
b1011010000 3
#313
b100000000000000000000000000100 S
#314
b1011010100 3
b1001000000100011011010100011111 S
#315
b0 S
#316
b100000000000000000000000000100 S
#317
b11111111111111111111111111000 3
b0 S
#318
b11111111111111111111111111100 3
#321
b1010010000 3
#322
b1010010100 3
#323
b1000111011100000110000100001000 S
#324
b1010011000 3
b100001111000001111000001001111 S
#325
b1010011100 3
b1000111011100000110000101001000 S
#326
b0 S
#328
b1101111100 3
#329
b1110000000 3
b11110111111111110100011000010000 S
#330
b1110000100 3
b100000000000001111111110001001 S
#331
b0 S
#332
b1010010100 3
b11111111100010101111011111111111 S
#333
b1010011000 3
b100001111000001111000001001111 S
#334
b1010011100 3
b1000111011100000110000101001000 S
#335
b1010100000 3
b100001111000001111000001001111 S
#336
b1010100100 3
b1000111011100000110000110001000 S
#337
b1110000000 3
b0 S
#338
b1110000100 3
b100000000000001111111110001001 S
#339
b1110001000 3
b11111111100010101111011111111111 S
#340
b0 S
#341
b1010011100 3
b11110111111111110010000000000111 S
#342
b1010100000 3
b100001111000001111000001001111 S
#343
b1010100100 3
b1000111011100000110000110001000 S
#344
b1010101000 3
b100000000000001011010100010000 S
#345
b1010101100 3
b11111111111100001111011111111111 S
#346
b1110001000 3
b0 S
#347
b1110001100 3
b11110111111111110010000000000111 S
#348
b1110010000 3
b10111111001100001111111101111111 S
#349
b0 S
#350
b1010001100 3
b10110101001100001011110100000000 S
#351
b1010010000 3
b100001111000001111000001001111 S
#352
b1010010100 3
b1000111011100000110000100001000 S
#353
b1010011000 3
b100001111000001111000001001111 S
#354
b1010011100 3
b1000111011100000110000101001000 S
#355
b1110001100 3
b0 S
#356
b1110010000 3
b10111111001100001111111101111111 S
#357
b1110010100 3
b10110101001100001011110100000000 S
#358
b0 S
#359
b1110011000 3
b100101000000000100011000000100 S
#360
b1110011100 3
b11110100010011111110000000000101 S
#361
b0 S
#411
b111100 3
#412
b1110011100 3
b1011000001 S
#413
b1011000100 3
b0 S
#415
b1011000000 3
#416
b1011000100 3
b1101000000000000100100000000010 S
#417
b1011001000 3
b1001001000000010001110001000000 S
#418
b1011001100 3
b1000111011100000110000000001000 S
#419
b0 S
#422
b100000000000000000000000000100 S
#423
b0 S
#424
b1011010000 3
#425
b100000000000000000000000000100 S
#426
b1011010100 3
b1001000000100011011010100011111 S
#427
b0 S
#428
b100000000000000000000000000100 S
#429
b11111111111111111111111111000 3
b0 S
#430
b11111111111111111111111111100 3
#433
b1110010000 3
#434
b1110010100 3
#435
b10110101001100001011110100000000 S
#436
b1110011000 3
b100101000000000100011000000100 S
#437
b1110011100 3
b11110100010011111110000000000101 S
#438
b0 S
#442
b1110111000 3
#443
b1110111100 3
b11100011000001111111111011100 S
#444
b1111000000 3
b1000010100111001011001010000100 S
#445
b1111000100 3
b10111101000100001101101111111000 S
#446
b1111001000 3
b1001000001000011011000010000110 S
#447
b1110110100 3
b11110100010011110110100000000000 S
#448
b1110111000 3
b11110111111111110010000000110010 S
#449
b1110111100 3
b11100011000001111111111011100 S
#450
b1101110000 3
b1000010100111001011001010000100 S
#451
b1101110100 3
b10110101000000000100011101110000 S
#452
b1101111000 3
b100000000000000100011000000010 S
#453
b1101111100 3
b11111111100010001111011111111111 S
#454
b1110000000 3
b11110111111111110100011000010000 S
#455
b0 S
#456
b1010001100 3
b100000000000001111111110001001 S
#457
b1010010000 3
b100001111000001111000001001111 S
#458
b1010010100 3
b1000111011100000110000100001000 S
#459
b1010011000 3
b100001111000001111000001001111 S
#460
b1010011100 3
b1000111011100000110000101001000 S
#461
b1101111100 3
b0 S
#462
b111100 3
#463
b1110000000 3
b1011000001 S
#464
b1011000100 3
b0 S
#466
b1011000000 3
#467
b1011000100 3
b1101000000000000100100000000010 S
#468
b1011001000 3
b1001001000000010001110001000000 S
#469
b1011001100 3
b1000111011100000110000000001000 S
#470
b0 S
#473
b100000000000000000000000000100 S
#474
b0 S
#475
b1011010000 3
#476
b100000000000000000000000000100 S
#477
b1011010100 3
b1001000000100011011010100011111 S
#478
b0 S
#479
b100000000000000000000000000100 S
#480
b11111111111111111111111111000 3
b0 S
#481
b11111111111111111111111111100 3
#484
b1010010000 3
#485
b1010010100 3
#486
b1000111011100000110000100001000 S
#487
b1010011000 3
b100001111000001111000001001111 S
#488
b1010011100 3
b1000111011100000110000101001000 S
#489
b0 S
#491
b1101111100 3
#492
b1110000000 3
b11110111111111110100011000010000 S
#493
b1110000100 3
b100000000000001111111110001001 S
#494
b0 S
#495
b1010010100 3
b11111111100010101111011111111111 S
#496
b1010011000 3
b100001111000001111000001001111 S
#497
b1010011100 3
b1000111011100000110000101001000 S
#498
b1010100000 3
b100001111000001111000001001111 S
#499
b1010100100 3
b1000111011100000110000110001000 S
#500
b1110000000 3
b0 S
#501
b1110000100 3
b100000000000001111111110001001 S
#502
b1110001000 3
b11111111100010101111011111111111 S
#503
b0 S
#504
b1010011100 3
b11110111111111110010000000000111 S
#505
b1010100000 3
b100001111000001111000001001111 S
#506
b1010100100 3
b1000111011100000110000110001000 S
#507
b1010101000 3
b100000000000001011010100010000 S
#508
b1010101100 3
b11111111111100001111011111111111 S
#509
b1110001000 3
b0 S
#510
b1110001100 3
b11110111111111110010000000000111 S
#511
b1110010000 3
b10111111001100001111111101111111 S
#512
b0 S
1s
#513
b1010001100 3
b10110101001100001011110100000000 S
#514
b1010010000 3
b100001111000001111000001001111 S
#515
b1010010100 3
b1000111011100000110000100001000 S
#516
b1010011000 3
b100001111000001111000001001111 S
#517
b1010011100 3
b1000111011100000110000101001000 S
#518
b1110001100 3
b0 S
#519
b1110010000 3
b10111111001100001111111101111111 S
#520
b1110010100 3
b10110101001100001011110100000000 S
#521
b0 S
#522
b1110011000 3
b100101000000000100011000000100 S
#523
b1110011100 3
b11110100010011111110000000000101 S
#524
b0 S
#574
b111100 3
#575
b1110011100 3
b1011000001 S
#576
b1011000100 3
b0 S
#578
b1011000000 3
#579
b1011000100 3
b1101000000000000100100000000010 S
#580
b1011001000 3
b1001001000000010001110001000000 S
#581
b1011001100 3
b1000111011100000110000000001000 S
#582
b0 S
#585
b100000000000000000000000000100 S
#586
b0 S
#587
b1011010000 3
#588
b100000000000000000000000000100 S
#589
b1011010100 3
b1001000000100011011010100011111 S
#590
b0 S
#591
b100000000000000000000000000100 S
#592
b11111111111111111111111111000 3
b0 S
#593
b11111111111111111111111111100 3
#596
b1110010000 3
#597
b1110010100 3
#598
b10110101001100001011110100000000 S
#599
b1110011000 3
b100101000000000100011000000100 S
#600
b1110011100 3
b11110100010011111110000000000101 S
#601
b0 S
#605
b1110111000 3
#606
b1110111100 3
b11100011000001111111111011100 S
#607
b1111000000 3
b1000010100111001011001010000100 S
#608
b1111000100 3
b10111101000100001101101111111000 S
#609
b1111001000 3
b1001000001000011011000010000110 S
#610
b1110110100 3
b11110100010011110110100000000000 S
#611
b1110111000 3
b11110111111111110010000000110010 S
#612
b1110111100 3
b11100011000001111111111011100 S
#613
b1101110000 3
b1000010100111001011001010000100 S
#614
b1101110100 3
b10110101000000000100011101110000 S
#615
b1101111000 3
b100000000000000100011000000010 S
#616
b1101111100 3
b11111111100010001111011111111111 S
#617
b1110000000 3
b11110111111111110100011000010000 S
#618
b0 S
#619
b1010001100 3
b100000000000001111111110001001 S
#620
b1010010000 3
b100001111000001111000001001111 S
#621
b1010010100 3
b1000111011100000110000100001000 S
#622
b1010011000 3
b100001111000001111000001001111 S
#623
b1010011100 3
b1000111011100000110000101001000 S
#624
b1101111100 3
b0 S
#625
b111100 3
#626
b1110000000 3
b1011000001 S
#627
b1011000100 3
b0 S
#629
b1011000000 3
#630
b1011000100 3
b1101000000000000100100000000010 S
#631
b1011001000 3
b1001001000000010001110001000000 S
#632
b1011001100 3
b1000111011100000110000000001000 S
#633
b0 S
#636
b100000000000000000000000000100 S
#637
b0 S
#638
b1011010000 3
#639
b100000000000000000000000000100 S
#640
b1011010100 3
b1001000000100011011010100011111 S
#641
b0 S
#642
b100000000000000000000000000100 S
#643
b11111111111111111111111111000 3
b0 S
#644
b11111111111111111111111111100 3
#647
b1010010000 3
#648
b1010010100 3
#649
b1000111011100000110000100001000 S
#650
b1010011000 3
b100001111000001111000001001111 S
#651
b1010011100 3
b1000111011100000110000101001000 S
#652
b0 S
#654
b1101111100 3
#655
b1110000000 3
b11110111111111110100011000010000 S
#656
b1110000100 3
b100000000000001111111110001001 S
#657
b0 S
#658
b1010010100 3
b11111111100010101111011111111111 S
#659
b1010011000 3
b100001111000001111000001001111 S
#660
b1010011100 3
b1000111011100000110000101001000 S
#661
b1010100000 3
b100001111000001111000001001111 S
#662
b1010100100 3
b1000111011100000110000110001000 S
#663
b1110000000 3
b0 S
#664
b1110000100 3
b100000000000001111111110001001 S
#665
b1110001000 3
b11111111100010101111011111111111 S
#666
b0 S
#667
b1010011100 3
b11110111111111110010000000000111 S
#668
b1010100000 3
b100001111000001111000001001111 S
#669
b1010100100 3
b1000111011100000110000110001000 S
#670
b1010101000 3
b100000000000001011010100010000 S
#671
b1010101100 3
b11111111111100001111011111111111 S
#672
b1110001000 3
b0 S
#673
b1110001100 3
b11110111111111110010000000000111 S
#674
b1110010000 3
b10111111001100001111111101111111 S
#675
b0 S
#676
b1010001100 3
b10110101001100001011110100000000 S
#677
b1010010000 3
b100001111000001111000001001111 S
#678
b1010010100 3
b1000111011100000110000100001000 S
#679
b1010011000 3
b100001111000001111000001001111 S
#680
b1010011100 3
b1000111011100000110000101001000 S
#681
b1110001100 3
b0 S
#682
b1110010000 3
b10111111001100001111111101111111 S
#683
b1110010100 3
b10110101001100001011110100000000 S
#684
b0 S
#685
b1110011000 3
b100101000000000100011000000100 S
#686
b1110011100 3
b11110100010011111110000000000101 S
#687
b0 S
#737
b111100 3
#738
b1110011100 3
b1011000001 S
#739
b1011000100 3
b0 S
#741
b1011000000 3
#742
b1011000100 3
b1101000000000000100100000000010 S
#743
b1011001000 3
b1001001000000010001110001000000 S
#744
b1011001100 3
b1000111011100000110000000001000 S
#745
b0 S
#748
b100000000000000000000000000100 S
#749
b0 S
#750
b1011010000 3
#751
b100000000000000000000000000100 S
#752
b1011010100 3
b1001000000100011011010100011111 S
#753
b0 S
#754
b100000000000000000000000000100 S
#755
b11111111111111111111111111000 3
b0 S
#756
b11111111111111111111111111100 3
#759
b1110010000 3
#760
b1110010100 3
#761
b10110101001100001011110100000000 S
#762
b1110011000 3
b100101000000000100011000000100 S
#763
b1110011100 3
b11110100010011111110000000000101 S
#764
b0 S
#768
b1110111000 3
#769
b1110111100 3
b11100011000001111111111011100 S
#770
b1111000000 3
b1000010100111001011001010000100 S
#771
b1111000100 3
b10111101000100001101101111111000 S
#772
b1111001000 3
b1001000001000011011000010000110 S
#773
b1110110100 3
b11110100010011110110100000000000 S
#774
b1110111000 3
b11110111111111110010000000110010 S
#775
b1110111100 3
b11100011000001111111111011100 S
#776
b1101110000 3
b1000010100111001011001010000100 S
#777
b1101110100 3
b10110101000000000100011101110000 S
#778
b1101111000 3
b100000000000000100011000000010 S
#779
b1101111100 3
b11111111100010001111011111111111 S
#780
b1110000000 3
b11110111111111110100011000010000 S
#781
b0 S
#782
b1010001100 3
b100000000000001111111110001001 S
#783
b1010010000 3
b100001111000001111000001001111 S
#784
b1010010100 3
b1000111011100000110000100001000 S
#785
b1010011000 3
b100001111000001111000001001111 S
#786
b1010011100 3
b1000111011100000110000101001000 S
#787
b1101111100 3
b0 S
#788
b111100 3
#789
b1110000000 3
b1011000001 S
#790
b1011000100 3
b0 S
#792
b1011000000 3
#793
b1011000100 3
b1101000000000000100100000000010 S
#794
b1011001000 3
b1001001000000010001110001000000 S
#795
b1011001100 3
b1000111011100000110000000001000 S
#796
b0 S
#799
b100000000000000000000000000100 S
#800
b0 S
#801
b1011010000 3
#802
b100000000000000000000000000100 S
#803
b1011010100 3
b1001000000100011011010100011111 S
#804
b0 S
#805
b100000000000000000000000000100 S
#806
b11111111111111111111111111000 3
b0 S
#807
b11111111111111111111111111100 3
#810
b1010010000 3
#811
b1010010100 3
#812
b1000111011100000110000100001000 S
#813
b1010011000 3
b100001111000001111000001001111 S
#814
b1010011100 3
b1000111011100000110000101001000 S
#815
b0 S
#817
b1101111100 3
#818
b1110000000 3
b11110111111111110100011000010000 S
#819
b1110000100 3
b100000000000001111111110001001 S
#820
b0 S
#821
b1010010100 3
b11111111100010101111011111111111 S
#822
b1010011000 3
b100001111000001111000001001111 S
#823
b1010011100 3
b1000111011100000110000101001000 S
#824
b1010100000 3
b100001111000001111000001001111 S
#825
b1010100100 3
b1000111011100000110000110001000 S
#826
b1110000000 3
b0 S
#827
b1110000100 3
b100000000000001111111110001001 S
#828
b1110001000 3
b11111111100010101111011111111111 S
#829
b0 S
#830
b1010011100 3
b11110111111111110010000000000111 S
#831
b1010100000 3
b100001111000001111000001001111 S
#832
b1010100100 3
b1000111011100000110000110001000 S
#833
b1010101000 3
b100000000000001011010100010000 S
#834
b1010101100 3
b11111111111100001111011111111111 S
#835
b1110001000 3
b0 S
#836
b1110001100 3
b11110111111111110010000000000111 S
#837
b1110010000 3
b10111111001100001111111101111111 S
#838
b0 S
#839
b1010001100 3
b10110101001100001011110100000000 S
#840
b1010010000 3
b100001111000001111000001001111 S
#841
b1010010100 3
b1000111011100000110000100001000 S
#842
b1010011000 3
b100001111000001111000001001111 S
#843
b1010011100 3
b1000111011100000110000101001000 S
#844
b1110001100 3
b0 S
#845
b1110010000 3
b10111111001100001111111101111111 S
#846
b1110010100 3
b10110101001100001011110100000000 S
#847
b0 S
#848
b1110011000 3
b100101000000000100011000000100 S
#849
b1110011100 3
b11110100010011111110000000000101 S
#850
b0 S
#900
b111100 3
#901
b1110011100 3
b1011000001 S
#902
b1011000100 3
b0 S
#904
b1011000000 3
#905
b1011000100 3
b1101000000000000100100000000010 S
#906
b1011001000 3
b1001001000000010001110001000000 S
#907
b1011001100 3
b1000111011100000110000000001000 S
#908
b0 S
#911
b100000000000000000000000000100 S
#912
b0 S
#913
b1011010000 3
#914
b100000000000000000000000000100 S
#915
b1011010100 3
b1001000000100011011010100011111 S
#916
b0 S
#917
b100000000000000000000000000100 S
#918
b11111111111111111111111111000 3
b0 S
#919
b11111111111111111111111111100 3
#922
b1110010000 3
#923
b1110010100 3
#924
b10110101001100001011110100000000 S
#925
b1110011000 3
b100101000000000100011000000100 S
#926
b1110011100 3
b11110100010011111110000000000101 S
#927
b0 S
#931
b1110111000 3
#932
b1110111100 3
b11100011000001111111111011100 S
#933
b1111000000 3
b1000010100111001011001010000100 S
#934
b1111000100 3
b10111101000100001101101111111000 S
#935
b1111001000 3
b1001000001000011011000010000110 S
#936
b1110110100 3
b11110100010011110110100000000000 S
#937
b1110111000 3
b11110111111111110010000000110010 S
#938
b1110111100 3
b11100011000001111111111011100 S
#939
b1101110000 3
b1000010100111001011001010000100 S
#940
b1101110100 3
b10110101000000000100011101110000 S
#941
b1101111000 3
b100000000000000100011000000010 S
#942
b1101111100 3
b11111111100010001111011111111111 S
#943
b1110000000 3
b11110111111111110100011000010000 S
#944
b0 S
#945
b1010001100 3
b100000000000001111111110001001 S
#946
b1010010000 3
b100001111000001111000001001111 S
#947
b1010010100 3
b1000111011100000110000100001000 S
#948
b1010011000 3
b100001111000001111000001001111 S
#949
b1010011100 3
b1000111011100000110000101001000 S
#950
b1101111100 3
b0 S
#951
b111100 3
#952
b1110000000 3
b1011000001 S
#953
b1011000100 3
b0 S
#955
b1011000000 3
#956
b1011000100 3
b1101000000000000100100000000010 S
#957
b1011001000 3
b1001001000000010001110001000000 S
#958
b1011001100 3
b1000111011100000110000000001000 S
#959
b0 S
#962
b100000000000000000000000000100 S
#963
b0 S
#964
b1011010000 3
#965
b100000000000000000000000000100 S
#966
b1011010100 3
b1001000000100011011010100011111 S
#967
b0 S
#968
b100000000000000000000000000100 S
#969
b11111111111111111111111111000 3
b0 S
#970
b11111111111111111111111111100 3
#973
b1010010000 3
#974
b1010010100 3
#975
b1000111011100000110000100001000 S
#976
b1010011000 3
b100001111000001111000001001111 S
#977
b1010011100 3
b1000111011100000110000101001000 S
#978
b0 S
#980
b1101111100 3
#981
b1110000000 3
b11110111111111110100011000010000 S
#982
b1110000100 3
b100000000000001111111110001001 S
#983
b0 S
#984
b1010010100 3
b11111111100010101111011111111111 S
#985
b1010011000 3
b100001111000001111000001001111 S
#986
b1010011100 3
b1000111011100000110000101001000 S
#987
b1010100000 3
b100001111000001111000001001111 S
#988
b1010100100 3
b1000111011100000110000110001000 S
#989
b1110000000 3
b0 S
#990
b1110000100 3
b100000000000001111111110001001 S
#991
b1110001000 3
b11111111100010101111011111111111 S
#992
b0 S
#993
b1010011100 3
b11110111111111110010000000000111 S
#994
b1010100000 3
b100001111000001111000001001111 S
#995
b1010100100 3
b1000111011100000110000110001000 S
#996
b1010101000 3
b100000000000001011010100010000 S
#997
b1010101100 3
b11111111111100001111011111111111 S
#998
b1110001000 3
b0 S
#999
b1110001100 3
b11110111111111110010000000000111 S
#1000
b1110010000 3
b10111111001100001111111101111111 S
#1001
b0 S
#1002
b1010001100 3
b10110101001100001011110100000000 S
#1003
b1010010000 3
b100001111000001111000001001111 S
#1004
b1010010100 3
b1000111011100000110000100001000 S
#1005
b1010011000 3
b100001111000001111000001001111 S
#1006
b1010011100 3
b1000111011100000110000101001000 S
#1007
b1110001100 3
b0 S
#1008
b1110010000 3
b10111111001100001111111101111111 S
#1009
b1110010100 3
b10110101001100001011110100000000 S
#1010
b0 S
#1011
b1110011000 3
b100101000000000100011000000100 S
#1012
b1110011100 3
b11110100010011111110000000000101 S
#1013
b0 S
