Vivado and Keil project/viavado_prj/.Xil/Vivado-17908-LAPTOP-3N54D6K6/hw_ila_data_1/zip_work/waveform.vcd
$date
        2023-Feb-28 16:51:08
$end
$version
        Vivado v2022.2 (64-bit)
$end
$timescale
        1ps
$end
$scope module dut $end
$var reg 1 " clk50M_IBUF $end
$var reg 16 # EXP_IBUF [15:0] $end
$var reg 16 3 HADDRI [15:0] $end
$var reg 16 C HRDATAI [15:0] $end
$var reg 1 S _TRIGGER $end
$var reg 1 T _WINDOW $end
$var reg 1 U _GAP $end
$upscope $end
$enddefinitions $end
#0
$dumpvars
0"
b1111111101101110 #
b1111111111111100 3
b0 C
0S
1T
0U
$end
#2
b101011000 3
#3
b101011100 3
#4
b100011000000010 C
#5
b101100000 3
b110100000010011 C
#6
b101100100 3
b1011000100001011 C
#7
b0 C
#10
b101101000 3
b1110000000000000 C
#11
b0 C
#16
b101101100 3
b100011101110000 C
#17
b101101000 3
b0 C
#18
b101101100 3
b100011101110000 C
#19
b1000001000 3
b100001110001010 C
#20
b1000001100 3
b1111111110100111 C
#21
b1000010000 3
b1111000001000101 C
#22
b1000010100 3
b10000000000001 C
#23
b1000011000 3
b1111100011100001 C
#24
b1111011000 3
b1111000001001111 C
#25
b1111011100 3
b1011010100010000 C
#26
b1111100000 3
b10010000000000 C
#27
b1111100100 3
b10000000110010 C
#28
b0 C
#31
b111100 3
#32
b1111100100 3
b1011101101 C
#33
b1011110000 3
b0 C
#35
b1011101100 3
#36
b1011110000 3
b100100000000010 C
#37
b1011110100 3
b1110001000000 C
#38
b1011111000 3
b110000000001000 C
#39
b0 C
#42
b100 C
#43
b0 C
#44
b1011111100 3
#45
b100 C
#46
b1100000000 3
b1011010100011111 C
#47
b0 C
#48
b100 C
#49
b1111111111111000 3
b0 C
#50
b1111111111111100 3
#53
b1111011000 3
#54
b1111011100 3
#55
b1011010100010000 C
#56
b1111100000 3
b10010000000000 C
#57
b1111100100 3
b10000000110010 C
#58
b0 C
#61
b1111101000 3
b1111111111011100 C
#62
b1111101100 3
b1011001010000100 C
#63
b1111110000 3
b1101101111111000 C
#64
b1111100000 3
b1011000010000110 C
#65
b1111100100 3
b10000000110010 C
#66
b1111101000 3
b1111111111011100 C
#67
b1110011100 3
b1011001010000100 C
#68
b1110100000 3
b100011101110000 C
#69
b1110100100 3
b100011000000010 C
#70
b1110101000 3
b1111011111111111 C
#71
b1110101100 3
b100011000010000 C
#72
b0 C
#73
b1010111000 3
b1111111110001001 C
#74
b1010111100 3
b1111000001001111 C
#75
b1011000000 3
b110000100001000 C
#76
b1011000100 3
b1111000001001111 C
#77
b1011001000 3
b110000101001000 C
#78
b1110101000 3
b0 C
#79
b1110101100 3
b100011000010000 C
#80
b1110110000 3
b1111111110001001 C
#81
b0 C
#82
b111100 3
#83
b1110110000 3
b1011101101 C
#84
b1011110000 3
b0 C
#86
b1011101100 3
#87
b1011110000 3
b100100000000010 C
#88
b1011110100 3
b1110001000000 C
#89
b1011111000 3
b110000000001000 C
#90
b0 C
#93
b100 C
#94
b0 C
#95
b1011111100 3
#96
b100 C
#97
b1100000000 3
b1011010100011111 C
#98
b0 C
#99
b100 C
#100
b1111111111111000 3
b0 C
#101
b1111111111111100 3
#104
b1110101000 3
#105
b1110101100 3
#106
b100011000010000 C
#107
b1110110000 3
b1111111110001001 C
#108
b1110110100 3
b1111011111111111 C
#109
b0 C
#111
b1011000000 3
#112
b1011000100 3
b1111000001001111 C
#113
b1011001000 3
b110000101001000 C
#114
b1011001100 3
b1111000001001111 C
#115
b1011010000 3
b110000110001000 C
#116
b1110101100 3
b0 C
#117
b1110110000 3
b1111111110001001 C
#118
b1110110100 3
b1111011111111111 C
#119
b0 C
#120
b1011001000 3
b10000000000111 C
#121
b1011001100 3
b1111000001001111 C
#122
b1011010000 3
b110000110001000 C
#123
b1011010100 3
b1011010100010000 C
#124
b1011011000 3
b1111011111111111 C
#125
b1110110100 3
b0 C
#126
b1110111000 3
b10000000000111 C
#127
b1110111100 3
b1111111101111111 C
#128
b0 C
#129
b1010111000 3
b1011110100000000 C
#130
b1010111100 3
b1111000001001111 C
#131
b1011000000 3
b110000100001000 C
#132
b1011000100 3
b1111000001001111 C
#133
b1011001000 3
b110000101001000 C
#134
b1110111000 3
b0 C
#135
b1110111100 3
b1111111101111111 C
#136
b1111000000 3
b1011110100000000 C
#137
b0 C
#138
b1111000100 3
b100011000000100 C
#139
b1111001000 3
b1110000000000101 C
#140
b0 C
#190
b111100 3
#191
b1111001000 3
b1011101101 C
#192
b1011110000 3
b0 C
#194
b1011101100 3
#195
b1011110000 3
b100100000000010 C
#196
b1011110100 3
b1110001000000 C
#197
b1011111000 3
b110000000001000 C
#198
b0 C
#201
b100 C
#202
b0 C
#203
b1011111100 3
#204
b100 C
#205
b1100000000 3
b1011010100011111 C
#206
b0 C
#207
b100 C
#208
b1111111111111000 3
b0 C
#209
b1111111111111100 3
#212
b1110111100 3
#213
b1111000000 3
#214
b1011110100000000 C
#215
b1111000100 3
b100011000000100 C
#216
b1111001000 3
b1110000000000101 C
#217
b0 C
#221
b1111100100 3
#222
b1111101000 3
b1111111111011100 C
#223
b1111101100 3
b1011001010000100 C
#224
b1111110000 3
b1101101111111000 C
#225
b1111110100 3
b1011000010000110 C
#226
b1111100000 3
b110100000000000 C
#227
b1111111000 3
b10000000110010 C
#228
b1111111100 3
b111001001111010 C
#229
b0 C
#231
b1000010100 3
#232
b1000011000 3
b1111100011100001 C
#233
b1000011100 3
b1111000001001111 C
#234
b1000100000 3
b1111011111111111 C
#235
b101101000 3
b1110001110000 C
#236
b101101100 3
b100011101110000 C
#237
b101110000 3
b100001110001010 C
#238
b101110100 3
b100011101110000 C
#239
b101111000 3
b100001100001010 C
#240
b0 C
#243
b111100 3
#244
b101111000 3
b1011101101 C
#245
b1011110000 3
b0 C
#248
b1011101100 3
#249
b1011110000 3
b100100000000010 C
#250
b1011110100 3
b1110001000000 C
#251
b1011111000 3
b110000000001000 C
#252
b0 C
#255
b100 C
#256
b0 C
#257
b1011111100 3
#258
b100 C
#259
b1100000000 3
b1011010100011111 C
#260
b0 C
#261
b100 C
#262
b1111111111111000 3
b0 C
#263
b1111111111111100 3
#266
b101101100 3
#267
b101110000 3
#268
b100001110001010 C
#269
b101110100 3
b100011101110000 C
#270
b101111000 3
b100001100001010 C
#271
b0 C
#274
b1000100000 3
#275
b1000100100 3
b1110001110000 C
#276
b1000101000 3
b10111000001000 C
#277
b1000101100 3
b10000100010000 C
#278
b1111111101001110 #
b1000110000 3
b100000010100000 C
#279
b111000100 3
b0 C
#280
b111001000 3
b1110000000101110 C
#281
b111001100 3
b10000000 C
#282
b111010000 3
b10000110000000 C
#283
b111010100 3
b100000010100000 C
#284
b111011000 3
b1111111111001110 C
#285
b111011100 3
b10000110000000 C
#286
b111100000 3
b100000010100000 C
#287
b111100100 3
b1111111111000100 C
#288
b101101000 3
b111000000100 C
#289
b101101100 3
b100011101110000 C
#290
b101110000 3
b100001110001010 C
#291
b101110100 3
b100011101110000 C
#292
b111100 3
b0 C
#293
b101110100 3
b1011101101 C
#294
b1011110000 3
b0 C
#297
b1011101100 3
#298
b1011110000 3
b100100000000010 C
#299
b1011110100 3
b1110001000000 C
#300
b1011111000 3
b110000000001000 C
#301
b0 C
#304
b100 C
#305
b0 C
#306
b1011111100 3
#307
b100 C
#308
b1100000000 3
b1011010100011111 C
#309
b0 C
#310
b100 C
#311
b1111111111111000 3
b0 C
#312
b1111111111111100 3
#315
b101101000 3
#316
b101101100 3
#317
b100011101110000 C
#318
b101110000 3
b100001110001010 C
#319
b101110100 3
b100011101110000 C
#320
b0 C
#323
b101111000 3
b100001100001010 C
#324
b0 C
#328
b111100000 3
b100011101110000 C
#329
b111100100 3
b1111111111000100 C
#330
b111101000 3
b111000000100 C
#331
b111101100 3
b1111000000000000 C
#332
b111110000 3
b10000100100000 C
#333
b1111011000 3
b100000010100000 C
#334
b1111011100 3
b1011010100010000 C
#335
b1111100000 3
b10010000000000 C
#336
b1111100100 3
b10000000110010 C
#337
b0 C
#341
b1111101000 3
b1111111111011100 C
#342
b1111101100 3
b1011001010000100 C
#343
b111100 3
b0 C
#344
b1111101100 3
b1011101101 C
#345
b1011110000 3
b0 C
#347
b1011101100 3
#348
b1011110000 3
b100100000000010 C
#349
b1011110100 3
b1110001000000 C
#350
b1011111000 3
b110000000001000 C
#351
b0 C
#354
b100 C
#355
b0 C
#356
b1011111100 3
#357
b100 C
#358
b1100000000 3
b1011010100011111 C
#359
b0 C
#360
b100 C
#361
b1111111111111000 3
b0 C
#362
b1111111111111100 3
#365
b1111101000 3
#366
b1111101100 3
#367
b1011001010000100 C
#368
b1111110000 3
b1101101111111000 C
#369
b1111110100 3
b1011000010000110 C
#370
b0 C
#372
b1111100000 3
#373
b1111100100 3
b10000000110010 C
#374
b1111101000 3
b1111111111011100 C
#375
b1110011100 3
b1011001010000100 C
#376
b1110100000 3
b100011101110000 C
#377
b1110100100 3
b100011000000010 C
#378
b1110101000 3
b1111011111111111 C
#379
b1110101100 3
b100011000010000 C
#380
b0 C
#381
b1010111000 3
b1111111110001001 C
#382
b1010111100 3
b1111000001001111 C
#383
b1011000000 3
b110000100001000 C
#384
b1011000100 3
b1111000001001111 C
#385
b1011001000 3
b110000101001000 C
#386
b1110101000 3
b0 C
#387
b1110101100 3
b100011000010000 C
#388
b1110110000 3
b1111111110001001 C
#389
b0 C
#390
b1011000000 3
b1111011111111111 C
#391
b1011000100 3
b1111000001001111 C
#392
b1011001000 3
b110000101001000 C
#393
b1011001100 3
b1111000001001111 C
#394
b1011010000 3
b110000110001000 C
#395
b1110101100 3
b0 C
#396
b1110110000 3
b1111111110001001 C
#397
b1110110100 3
b1111011111111111 C
#398
b0 C
#399
b1011001000 3
b10000000000111 C
#400
b1011001100 3
b1111000001001111 C
#401
b1011010000 3
b110000110001000 C
#402
b1011010100 3
b1011010100010000 C
#403
b1011011000 3
b1111011111111111 C
#404
b1110110100 3
b0 C
#405
b1110111000 3
b10000000000111 C
#406
b1110111100 3
b1111111101111111 C
#407
b0 C
#408
b1010111000 3
b1011110100000000 C
#409
b1010111100 3
b1111000001001111 C
#410
b1011000000 3
b110000100001000 C
#411
b1011000100 3
b1111000001001111 C
#412
b1011001000 3
b110000101001000 C
#413
b1110111000 3
b0 C
#414
b1110111100 3
b1111111101111111 C
#415
b1111000000 3
b1011110100000000 C
#416
b0 C
#417
b1111000100 3
b100011000000100 C
#418
b1111001000 3
b1110000000000101 C
#419
b0 C
#469
b111100 3
#470
b1111001000 3
b1011101101 C
#471
b1011110000 3
b0 C
#473
b1011101100 3
#474
b1011110000 3
b100100000000010 C
#475
b1011110100 3
b1110001000000 C
#476
b1011111000 3
b110000000001000 C
#477
b0 C
#480
b100 C
#481
b0 C
#482
b1011111100 3
#483
b100 C
#484
b1100000000 3
b1011010100011111 C
#485
b0 C
#486
b100 C
#487
b1111111111111000 3
b0 C
#488
b1111111111111100 3
#491
b1110111100 3
#492
b1111000000 3
#493
b1011110100000000 C
#494
b1111000100 3
b100011000000100 C
#495
b1111001000 3
b1110000000000101 C
#496
b0 C
#500
b1111100100 3
#501
b1111101000 3
b1111111111011100 C
#502
b1111101100 3
b1011001010000100 C
#503
b1111110000 3
b1101101111111000 C
#504
b1111110100 3
b1011000010000110 C
#505
b1111100000 3
b110100000000000 C
#506
b1111100100 3
b10000000110010 C
#507
b1111101000 3
b1111111111011100 C
#508
b1110011100 3
b1011001010000100 C
#509
b1110100000 3
b100011101110000 C
#510
b1110100100 3
b100011000000010 C
#511
b1110101000 3
b1111011111111111 C
#512
b1110101100 3
b100011000010000 C
#513
b0 C
#514
b1010111000 3
b1111111110001001 C
#515
b1010111100 3
b1111000001001111 C
#516
b1011000000 3
b110000100001000 C
#517
b1011000100 3
b1111000001001111 C
#518
b1011001000 3
b110000101001000 C
#519
b1110101000 3
b0 C
#520
b111100 3
#521
b1110101100 3
b1011101101 C
#522
b1011110000 3
b0 C
#524
b1011101100 3
#525
b1011110000 3
b100100000000010 C
#526
b1011110100 3
b1110001000000 C
#527
b1011111000 3
b110000000001000 C
#528
b0 C
#531
b100 C
#532
b0 C
#533
b1011111100 3
#534
b100 C
#535
b1100000000 3
b1011010100011111 C
#536
b0 C
#537
b100 C
#538
b1111111111111000 3
b0 C
#539
b1111111111111100 3
#542
b1010111100 3
#543
b1011000000 3
#544
b110000100001000 C
#545
b1011000100 3
b1111000001001111 C
#546
b1011001000 3
b110000101001000 C
#547
b0 C
#549
b1110101000 3
#550
b1110101100 3
b100011000010000 C
#551
b1110110000 3
b1111111110001001 C
#552
b0 C
#553
b1011000000 3
b1111011111111111 C
#554
b1011000100 3
b1111000001001111 C
#555
b1011001000 3
b110000101001000 C
#556
b1011001100 3
b1111000001001111 C
#557
b1011010000 3
b110000110001000 C
#558
b1110101100 3
b0 C
#559
b1110110000 3
b1111111110001001 C
#560
b1110110100 3
b1111011111111111 C
#561
b0 C
#562
b1011001000 3
b10000000000111 C
#563
b1011001100 3
b1111000001001111 C
#564
b1011010000 3
b110000110001000 C
#565
b1011010100 3
b1011010100010000 C
#566
b1011011000 3
b1111011111111111 C
#567
b1110110100 3
b0 C
#568
b1110111000 3
b10000000000111 C
#569
b1110111100 3
b1111111101111111 C
#570
b0 C
#571
b1010111000 3
b1011110100000000 C
#572
b1010111100 3
b1111000001001111 C
#573
b1011000000 3
b110000100001000 C
#574
b1011000100 3
b1111000001001111 C
#575
b1011001000 3
b110000101001000 C
#576
b1110111000 3
b0 C
#577
b1110111100 3
b1111111101111111 C
#578
b1111000000 3
b1011110100000000 C
#579
b0 C
#580
b1111000100 3
b100011000000100 C
#581
b1111001000 3
b1110000000000101 C
#582
b0 C
#632
b111100 3
#633
b1111001000 3
b1011101101 C
#634
b1011110000 3
b0 C
#636
b1011101100 3
#637
b1011110000 3
b100100000000010 C
#638
b1011110100 3
b1110001000000 C
#639
b1011111000 3
b110000000001000 C
#640
b0 C
#643
b100 C
#644
b0 C
#645
b1011111100 3
#646
b100 C
#647
b1100000000 3
b1011010100011111 C
#648
b0 C
#649
b100 C
#650
b1111111111111000 3
b0 C
#651
b1111111111111100 3
#654
b1110111100 3
#655
b1111000000 3
#656
b1011110100000000 C
#657
b1111000100 3
b100011000000100 C
#658
b1111001000 3
b1110000000000101 C
#659
b0 C
#663
b1111100100 3
#664
b1111101000 3
b1111111111011100 C
#665
b1111101100 3
b1011001010000100 C
#666
b1111110000 3
b1101101111111000 C
#667
b1111110100 3
b1011000010000110 C
#668
b1111100000 3
b110100000000000 C
#669
b1111100100 3
b10000000110010 C
#670
b1111101000 3
b1111111111011100 C
#671
b1110011100 3
b1011001010000100 C
#672
b1110100000 3
b100011101110000 C
#673
b1110100100 3
b100011000000010 C
#674
b1110101000 3
b1111011111111111 C
#675
b1110101100 3
b100011000010000 C
#676
b0 C
#677
b1010111000 3
b1111111110001001 C
#678
b1010111100 3
b1111000001001111 C
#679
b1011000000 3
b110000100001000 C
#680
b1011000100 3
b1111000001001111 C
#681
b1011001000 3
b110000101001000 C
#682
b1110101000 3
b0 C
#683
b111100 3
#684
b1110101100 3
b1011101101 C
#685
b1011110000 3
b0 C
#687
b1011101100 3
#688
b1011110000 3
b100100000000010 C
#689
b1011110100 3
b1110001000000 C
#690
b1011111000 3
b110000000001000 C
#691
b0 C
#694
b100 C
#695
b0 C
#696
b1011111100 3
#697
b100 C
#698
b1100000000 3
b1011010100011111 C
#699
b0 C
#700
b100 C
#701
b1111111111111000 3
b0 C
#702
b1111111111111100 3
#705
b1010111100 3
#706
b1011000000 3
#707
b110000100001000 C
#708
b1011000100 3
b1111000001001111 C
#709
b1011001000 3
b110000101001000 C
#710
b0 C
#712
b1110101000 3
#713
b1110101100 3
b100011000010000 C
#714
b1110110000 3
b1111111110001001 C
#715
b0 C
#716
b1011000000 3
b1111011111111111 C
#717
b1011000100 3
b1111000001001111 C
#718
b1011001000 3
b110000101001000 C
#719
b1011001100 3
b1111000001001111 C
#720
b1011010000 3
b110000110001000 C
#721
b1110101100 3
b0 C
#722
b1110110000 3
b1111111110001001 C
#723
b1110110100 3
b1111011111111111 C
#724
b0 C
#725
b1011001000 3
b10000000000111 C
#726
b1011001100 3
b1111000001001111 C
#727
b1011010000 3
b110000110001000 C
#728
b1011010100 3
b1011010100010000 C
#729
b1011011000 3
b1111011111111111 C
#730
b1110110100 3
b0 C
#731
b1110111000 3
b10000000000111 C
#732
b1110111100 3
b1111111101111111 C
#733
b0 C
#734
b1010111000 3
b1011110100000000 C
#735
b1010111100 3
b1111000001001111 C
#736
b1011000000 3
b110000100001000 C
#737
b1011000100 3
b1111000001001111 C
#738
b1011001000 3
b110000101001000 C
#739
b1110111000 3
b0 C
#740
b1110111100 3
b1111111101111111 C
#741
b1111000000 3
b1011110100000000 C
#742
b0 C
#743
b1111000100 3
b100011000000100 C
#744
b1111001000 3
b1110000000000101 C
#745
b0 C
#795
b111100 3
#796
b1111001000 3
b1011101101 C
#797
b1011110000 3
b0 C
#799
b1011101100 3
#800
b1011110000 3
b100100000000010 C
#801
b1011110100 3
b1110001000000 C
#802
b1011111000 3
b110000000001000 C
#803
b0 C
#806
b100 C
#807
b0 C
#808
b1011111100 3
#809
b100 C
#810
b1100000000 3
b1011010100011111 C
#811
b0 C
#812
b100 C
#813
b1111111111111000 3
b0 C
#814
b1111111111111100 3
#817
b1110111100 3
#818
b1111000000 3
#819
b1011110100000000 C
#820
b1111000100 3
b100011000000100 C
#821
b1111001000 3
b1110000000000101 C
#822
b0 C
#826
b1111100100 3
#827
b1111101000 3
b1111111111011100 C
#828
b1111101100 3
b1011001010000100 C
#829
b1111110000 3
b1101101111111000 C
#830
b1111110100 3
b1011000010000110 C
#831
b1111100000 3
b110100000000000 C
#832
b1111111000 3
b10000000110010 C
#833
b1111111100 3
b111001001111010 C
#834
b0 C
#836
b111101100 3
#837
b111110000 3
b10000100100000 C
#838
b111110100 3
b100000010100000 C
#839
b111111000 3
b1111111110111110 C
#840
b101110000 3
b1111000000000000 C
#841
b101110100 3
b100011101110000 C
#842
b101111000 3
b100001100001010 C
#843
b101111100 3
b100011101110000 C
#844
b110000000 3
b1011010100001000 C
#845
b0 C
#848
b111100 3
#849
b110000000 3
b1011101101 C
#850
b1011110000 3
b0 C
#853
b1011101100 3
#854
b1011110000 3
b100100000000010 C
#855
b1011110100 3
b1110001000000 C
#856
b1011111000 3
b110000000001000 C
#857
b0 C
#860
b100 C
#861
b0 C
#862
b1011111100 3
#863
b100 C
#864
b1100000000 3
b1011010100011111 C
#865
b0 C
#866
b100 C
#867
b1111111111111000 3
b0 C
#868
b1111111111111100 3
#871
b101110100 3
#872
b101111000 3
#873
b100001100001010 C
#874
b101111100 3
b100011101110000 C
#875
b110000000 3
b1011010100001000 C
#876
b0 C
#879
b111110100 3
#880
b111111000 3
b1111111110111110 C
#881
b111111100 3
b1111000000000000 C
#882
b1111011000 3
b11001101000 C
#883
b1111111101101110 #
b1111011100 3
b1011010100010000 C
#884
b1111100000 3
b10010000000000 C
#885
b1111100100 3
b10000000110010 C
#886
b0 C
#890
b1111101000 3
b1111111111011100 C
#891
b1111101100 3
b1011001010000100 C
#892
b1111110000 3
b1101101111111000 C
#893
b1111100000 3
b1011000010000110 C
#894
b1111100100 3
b10000000110010 C
#895
b1111101000 3
b1111111111011100 C
#896
b1110011100 3
b1011001010000100 C
#897
b111100 3
b0 C
#898
b1110100000 3
b1011101101 C
#899
b1011110000 3
b0 C
#901
b1011101100 3
#902
b1011110000 3
b100100000000010 C
#903
b1011110100 3
b1110001000000 C
#904
b1011111000 3
b110000000001000 C
#905
b0 C
#908
b100 C
#909
b0 C
#910
b1011111100 3
#911
b100 C
#912
b1100000000 3
b1011010100011111 C
#913
b0 C
#914
b100 C
#915
b1111111111111000 3
b0 C
#916
b1111111111111100 3
#919
b1111100000 3
#920
b1111100100 3
#921
b10000000110010 C
#922
b1111101000 3
b1111111111011100 C
#923
b1110011100 3
b1011001010000100 C
#924
b1110100000 3
b100011101110000 C
#925
b1110100100 3
b100011000000010 C
#926
b0 C
#928
b1110101000 3
b1111011111111111 C
#929
b1110101100 3
b100011000010000 C
#930
b0 C
#931
b1010111000 3
b1111111110001001 C
#932
b1010111100 3
b1111000001001111 C
#933
b1011000000 3
b110000100001000 C
#934
b1011000100 3
b1111000001001111 C
#935
b1011001000 3
b110000101001000 C
#936
b1110101000 3
b0 C
#937
b1110101100 3
b100011000010000 C
#938
b1110110000 3
b1111111110001001 C
#939
b0 C
#940
b1011000000 3
b1111011111111111 C
#941
b1011000100 3
b1111000001001111 C
#942
b1011001000 3
b110000101001000 C
#943
b1011001100 3
b1111000001001111 C
#944
b1011010000 3
b110000110001000 C
#945
b1110101100 3
b0 C
#946
b1110110000 3
b1111111110001001 C
#947
b1110110100 3
b1111011111111111 C
#948
b0 C
#949
b1011001000 3
b10000000000111 C
#950
b1011001100 3
b1111000001001111 C
#951
b1011010000 3
b110000110001000 C
#952
b1011010100 3
b1011010100010000 C
#953
b1011011000 3
b1111011111111111 C
#954
b1110110100 3
b0 C
#955
b1110111000 3
b10000000000111 C
#956
b1110111100 3
b1111111101111111 C
#957
b0 C
#958
b1010111000 3
b1011110100000000 C
#959
b1010111100 3
b1111000001001111 C
#960
b1011000000 3
b110000100001000 C
#961
b1011000100 3
b1111000001001111 C
#962
b1011001000 3
b110000101001000 C
#963
b1110111000 3
b0 C
#964
b1110111100 3
b1111111101111111 C
#965
b1111000000 3
b1011110100000000 C
#966
b0 C
#967
b1111000100 3
b100011000000100 C
#968
b1111001000 3
b1110000000000101 C
#969
b0 C
#1019
b111100 3
#1020
b1111001000 3
b1011101101 C
#1021
b1011110000 3
b0 C
#1023
b1011101100 3
#1024
b1011110000 3
b100100000000010 C
#1025
b1011110100 3
b1110001000000 C
#1026
b1011111000 3
b110000000001000 C
#1027
b0 C
#1030
b100 C
#1031
b0 C
#1032
b1011111100 3
#1033
b100 C
#1034
b1100000000 3
b1011010100011111 C
#1035
b0 C
#1036
b100 C
#1037
b1111111111111000 3
b0 C
#1038
b1111111111111100 3
#1041
b1110111100 3
#1042
b1111000000 3
#1043
b1011110100000000 C
#1044
b1111000100 3
b100011000000100 C
#1045
b1111001000 3
b1110000000000101 C
#1046
b0 C
#1050
b1111100100 3
#1051
b1111101000 3
b1111111111011100 C
#1052
b1111101100 3
b1011001010000100 C
#1053
b1111110000 3
b1101101111111000 C
#1054
b1111110100 3
b1011000010000110 C
#1055
b1111100000 3
b110100000000000 C
#1056
b1111100100 3
b10000000110010 C
#1057
b1111101000 3
b1111111111011100 C
#1058
b1110011100 3
b1011001010000100 C
#1059
b1110100000 3
b100011101110000 C
#1060
b1110100100 3
b100011000000010 C
#1061
b1110101000 3
b1111011111111111 C
#1062
b1110101100 3
b100011000010000 C
#1063
b0 C
#1064
b1010111000 3
b1111111110001001 C
#1065
b1010111100 3
b1111000001001111 C
#1066
b1011000000 3
b110000100001000 C
#1067
b1011000100 3
b1111000001001111 C
#1068
b1011001000 3
b110000101001000 C
#1069
b1110101000 3
b0 C
#1070
b111100 3
#1071
b1110101100 3
b1011101101 C
#1072
b1011110000 3
b0 C
#1074
b1011101100 3
#1075
b1011110000 3
b100100000000010 C
#1076
b1011110100 3
b1110001000000 C
#1077
b1011111000 3
b110000000001000 C
#1078
b0 C
#1081
b100 C
#1082
b0 C
#1083
b1011111100 3
#1084
b100 C
#1085
b1100000000 3
b1011010100011111 C
#1086
b0 C
#1087
b100 C
#1088
b1111111111111000 3
b0 C
#1089
b1111111111111100 3
#1092
b1010111100 3
#1093
b1011000000 3
#1094
b110000100001000 C
#1095
b1011000100 3
b1111000001001111 C
#1096
b1011001000 3
b110000101001000 C
#1097
b0 C
#1099
b1110101000 3
#1100
b1110101100 3
b100011000010000 C
#1101
b1110110000 3
b1111111110001001 C
#1102
b0 C
#1103
b1011000000 3
b1111011111111111 C
#1104
b1011000100 3
b1111000001001111 C
#1105
b1011001000 3
b110000101001000 C
#1106
b1011001100 3
b1111000001001111 C
#1107
b1011010000 3
b110000110001000 C
#1108
b1110101100 3
b0 C
#1109
b1110110000 3
b1111111110001001 C
#1110
b1110110100 3
b1111011111111111 C
#1111
b0 C
#1112
b1011001000 3
b10000000000111 C
#1113
b1011001100 3
b1111000001001111 C
#1114
b1011010000 3
b110000110001000 C
#1115
b1011010100 3
b1011010100010000 C
#1116
b1011011000 3
b1111011111111111 C
#1117
b1110110100 3
b0 C
#1118
b1110111000 3
b10000000000111 C
#1119
b1110111100 3
b1111111101111111 C
#1120
b0 C
#1121
b1010111000 3
b1011110100000000 C
#1122
b1010111100 3
b1111000001001111 C
#1123
b1011000000 3
b110000100001000 C
#1124
b1011000100 3
b1111000001001111 C
#1125
b1011001000 3
b110000101001000 C
#1126
b1110111000 3
b0 C
#1127
b1110111100 3
b1111111101111111 C
#1128
b1111000000 3
b1011110100000000 C
#1129
b0 C
#1130
b1111000100 3
b100011000000100 C
#1131
b1111001000 3
b1110000000000101 C
#1132
b0 C
#1182
b111100 3
#1183
b1111001000 3
b1011101101 C
#1184
b1011110000 3
b0 C
#1186
b1011101100 3
#1187
b1011110000 3
b100100000000010 C
#1188
b1011110100 3
b1110001000000 C
#1189
b1011111000 3
b110000000001000 C
#1190
b0 C
#1193
b100 C
#1194
b0 C
#1195
b1011111100 3
#1196
b100 C
#1197
b1100000000 3
b1011010100011111 C
#1198
b0 C
#1199
b100 C
#1200
b1111111111111000 3
b0 C
#1201
b1111111111111100 3
#1204
b1110111100 3
#1205
b1111000000 3
#1206
b1011110100000000 C
#1207
b1111000100 3
b100011000000100 C
#1208
b1111001000 3
b1110000000000101 C
#1209
b0 C
#1213
b1111100100 3
#1214
b1111101000 3
b1111111111011100 C
#1215
b1111101100 3
b1011001010000100 C
#1216
b1111110000 3
b1101101111111000 C
#1217
b1111110100 3
b1011000010000110 C
#1218
b1111100000 3
b110100000000000 C
#1219
b1111111000 3
b10000000110010 C
#1220
b1111111100 3
b111001001111010 C
#1221
b0 C
#1223
b111111100 3
#1224
b1000000000 3
b11001101000 C
#1225
b1000000100 3
b10000101000000 C
#1226
b1000001000 3
b100000010100000 C
#1227
b1000001100 3
b1111111110100111 C
#1228
b0 C
#1229
b101011000 3
b1111000001000101 C
#1230
b101011100 3
b100011000000010 C
#1231
b101100000 3
b110100000010011 C
#1232
b101100100 3
b1011000100001011 C
#1233
b111100 3
b0 C
#1234
b101100100 3
b1011101101 C
#1235
b1011110000 3
b0 C
#1237
b1011101100 3
#1238
b1011110000 3
b100100000000010 C
#1239
b1011110100 3
b1110001000000 C
#1240
b1011111000 3
b110000000001000 C
#1241
b0 C
#1244
b100 C
#1245
b0 C
#1246
b1011111100 3
#1247
b100 C
#1248
b1100000000 3
b1011010100011111 C
#1249
b0 C
#1250
b100 C
#1251
b1111111111111000 3
b0 C
#1252
b1111111111111100 3
#1255
b101011000 3
#1256
b101011100 3
#1257
b100011000000010 C
#1258
b101100000 3
b110100000010011 C
#1259
b101100100 3
b1011000100001011 C
#1260
b0 C
#1263
b101101000 3
b1110000000000000 C
#1264
b0 C
#1269
b101101100 3
b100011101110000 C
#1270
b101101000 3
b0 C
#1271
b101101100 3
b100011101110000 C
#1272
b1000001000 3
b100001110001010 C
#1273
b1000001100 3
b1111111110100111 C
#1274
b1000010000 3
b1111000001000101 C
#1275
b1000010100 3
b10000000000001 C
#1276
b1000011000 3
b1111100011100001 C
#1277
b1111011000 3
b1111000001001111 C
#1278
b1111011100 3
b1011010100010000 C
#1279
b1111100000 3
b10010000000000 C
#1280
b1111100100 3
b10000000110010 C
#1281
b0 C
#1284
b111100 3
#1285
b1111100100 3
b1011101101 C
#1286
b1011110000 3
b0 C
#1288
b1011101100 3
#1289
b1011110000 3
b100100000000010 C
#1290
b1011110100 3
b1110001000000 C
#1291
b1011111000 3
b110000000001000 C
#1292
b0 C
#1295
b100 C
#1296
b0 C
#1297
b1011111100 3
#1298
b100 C
#1299
b1100000000 3
b1011010100011111 C
#1300
b0 C
#1301
b100 C
#1302
b1111111111111000 3
b0 C
#1303
b1111111111111100 3
#1306
b1111011000 3
#1307
b1111011100 3
#1308
b1011010100010000 C
#1309
b1111100000 3
b10010000000000 C
#1310
b1111100100 3
b10000000110010 C
#1311
b0 C
#1314
b1111101000 3
b1111111111011100 C
#1315
b1111101100 3
b1011001010000100 C
#1316
b1111110000 3
b1101101111111000 C
#1317
b1111100000 3
b1011000010000110 C
#1318
b1111100100 3
b10000000110010 C
#1319
b1111101000 3
b1111111111011100 C
#1320
b1110011100 3
b1011001010000100 C
#1321
b1110100000 3
b100011101110000 C
#1322
b1110100100 3
b100011000000010 C
#1323
b1110101000 3
b1111011111111111 C
#1324
b1110101100 3
b100011000010000 C
#1325
b0 C
#1326
b1010111000 3
b1111111110001001 C
#1327
b1010111100 3
b1111000001001111 C
#1328
b1011000000 3
b110000100001000 C
#1329
b1011000100 3
b1111000001001111 C
#1330
b1011001000 3
b110000101001000 C
#1331
b1110101000 3
b0 C
#1332
b1110101100 3
b100011000010000 C
#1333
b1110110000 3
b1111111110001001 C
#1334
b0 C
#1335
b111100 3
#1336
b1110110000 3
b1011101101 C
#1337
b1011110000 3
b0 C
#1339
b1011101100 3
#1340
b1011110000 3
b100100000000010 C
#1341
b1011110100 3
b1110001000000 C
#1342
b1011111000 3
b110000000001000 C
#1343
b0 C
#1346
b100 C
#1347
b0 C
#1348
b1011111100 3
#1349
b100 C
#1350
b1100000000 3
b1011010100011111 C
#1351
b0 C
#1352
b100 C
#1353
b1111111111111000 3
b0 C
#1354
b1111111111111100 3
#1357
b1110101000 3
#1358
b1110101100 3
#1359
b100011000010000 C
